traces.vcd
$date
     Aug 27, 2018       10:07:38
$end

$version
 SystemC 2.3.2-Accellera --- Aug 21 2018 15:09:04
$end

$timescale
     1 ps
$end

$scope module SystemC $end
$var wire    1  aaaaa  CLK       $end
$var wire   32  aaaab  I [31:0]  $end
$var wire   32  aaaac  RES [31:0]  $end
$upscope $end
$enddefinitions  $end

$comment
All initial values are dumped below at time 0 sec = 0 timescale units.
$end

$dumpvars
0aaaaa
b1 aaaab
b111 aaaac
$end

#10000
b10 aaaab
b10 aaaac

#20000
b11 aaaab
b1 aaaac

#30000
b100 aaaab
b0 aaaac

#40000
b101 aaaab
b100 aaaac

#50000
b110 aaaab
b1 aaaac

#60000
b111 aaaab
b100 aaaac

#70000
b1000 aaaab
b1001 aaaac

#80000
b1001 aaaab
b101 aaaac

#90000
b1010 aaaab
b1001 aaaac

#100000
b1011 aaaab
b0 aaaac

#110000
b1100 aaaab
b110 aaaac

#120000
b1101 aaaab
b1001 aaaac

#130000
b1110 aaaab
b0 aaaac

#140000
b1111 aaaab
b1 aaaac

#150000
b10000 aaaab
b101 aaaac

#160000
b10001 aaaab
b1001 aaaac

#170000
b10010 aaaab
b111 aaaac

#180000
b10011 aaaab
b11 aaaac

#190000
b10100 aaaab
b100 aaaac

#200000
b10101 aaaab
b1001 aaaac

#210000
b10110 aaaab
b110 aaaac

#220000
b10111 aaaab

#230000
b11000 aaaab
b101 aaaac

#240000
b11001 aaaab
b100 aaaac

#250000
b11010 aaaab
b0 aaaac

#260000
b11011 aaaab
b111 aaaac

#270000
b11100 aaaab
b100 aaaac

#280000
b11101 aaaab
b0 aaaac

#290000
b11110 aaaab
b1 aaaac

#300000
b11111 aaaab
b11 aaaac

#310000
b100000 aaaab
b1 aaaac

#320000
b100001 aaaab
b11 aaaac

#330000
b100010 aaaab
b100 aaaac

#340000
b100011 aaaab
b111 aaaac

#350000
b100100 aaaab
b10 aaaac

#360000
b100101 aaaab
b111 aaaac

#370000
b100110 aaaab
b1 aaaac

#380000
b100111 aaaab
b10 aaaac

#390000
b101000 aaaab
b1 aaaac

#400000
1aaaaa
b101001 aaaab

#410000
b101010 aaaab
b111 aaaac

#420000
b101011 aaaab
b100 aaaac

#430000
b101100 aaaab
b10 aaaac

#440000
b101101 aaaab
b11 aaaac

#450000
b101110 aaaab
b101 aaaac

#460000
b101111 aaaab
b1 aaaac

#470000
b110000 aaaab
b10 aaaac

#480000
b110001 aaaab
b100 aaaac

#490000
b110010 aaaab

#500000
b110011 aaaab
b110 aaaac

#510000
b110100 aaaab
b11 aaaac

#520000
b110101 aaaab
b101 aaaac

#530000
b110110 aaaab

#540000
b110111 aaaab
b110 aaaac

#550000
b111000 aaaab
b0 aaaac

#560000
b111001 aaaab
b100 aaaac

#570000
b111010 aaaab
b1 aaaac

#580000
b111011 aaaab
b1001 aaaac

#590000
b111100 aaaab
b101 aaaac

#600000
b111101 aaaab
b111 aaaac

#610000
b111110 aaaab
b1000 aaaac

#620000
b111111 aaaab
b1001 aaaac

#630000
b1000000 aaaab
b11 aaaac

#640000
b1000001 aaaab
b111 aaaac

#650000
b1000010 aaaab
b100 aaaac

#660000
b1000011 aaaab
b110 aaaac

#670000
b1000100 aaaab
b100 aaaac

#680000
b1000101 aaaab
b11 aaaac

#690000
b1000110 aaaab
b0 aaaac

#700000
b1000111 aaaab
b111 aaaac

#710000
b1001000 aaaab
b0 aaaac

#720000
b1001001 aaaab
b10 aaaac

#730000
b1001010 aaaab
b1001 aaaac

#740000
b1001011 aaaab
b1 aaaac

#750000
b1001100 aaaab
b111 aaaac

#760000
b1001101 aaaab
b11 aaaac

#770000
b1001110 aaaab
b10 aaaac

#780000
b1001111 aaaab
b1001 aaaac

#790000
b1010000 aaaab
b111 aaaac

#800000
0aaaaa
b1010001 aaaab

#810000
b1010010 aaaab
b110 aaaac

#820000
b1010011 aaaab
b10 aaaac

#830000
b1010100 aaaab
b111 aaaac

#840000
b1010101 aaaab
b1000 aaaac

#850000
b1010110 aaaab
b100 aaaac

#860000
b1010111 aaaab
b111 aaaac

#870000
b1011000 aaaab
b11 aaaac

#880000
b1011001 aaaab
b110 aaaac

#890000
b1011010 aaaab
b1 aaaac

#900000
b1011011 aaaab
b11 aaaac

#910000
b1011100 aaaab
b110 aaaac

#920000
b1011101 aaaab
b1001 aaaac

#930000
b1011110 aaaab
b11 aaaac

#940000
b1011111 aaaab
b1 aaaac

#950000
b1100000 aaaab
b100 aaaac

#960000
b1100001 aaaab
b1 aaaac

#970000
b1100010 aaaab
b111 aaaac

#980000
b1100011 aaaab
b110 aaaac

#990000
b1100100 aaaab
b1001 aaaac

#1000000
b1100101 aaaab
b110 aaaac

#1010000
b1100110 aaaab
b0 aaaac

#1020000
b1100111 aaaab
b101 aaaac

#1030000
b1101000 aaaab
b100 aaaac

#1040000
b1101001 aaaab
b1001 aaaac

#1050000
b1101010 aaaab

#1060000
b1101011 aaaab
b10 aaaac

#1070000
b1101100 aaaab
b1 aaaac

#1080000
b1101101 aaaab
b1001 aaaac

#1090000
b1101110 aaaab
b100 aaaac

#1100000
b1101111 aaaab
b1000 aaaac

#1110000
b1110